+-------------+----+-----+-----+-----+-----+-----+-----+-----+-----+-----+
| Access      | OK | OK  |   9 |   5 |   0 | 100 |  -  |     |     |     |
| Allocate    | OK | OK  |  15 |   1 |   0 | 100 |  -  |     |     |     |
| AllocateR   | OK | OK  |  14 |   7 |   1 |  85 |  -  |     |     |     |
| Books       | OK | OK  |   3 |   1 |   0 | 100 |  -  |     |     |     |
| BooksR      | OK | OK  |   5 |   6 |   3 |  50 |  -  |     |     |     |
| BooksRR     | OK | OK  |  11 |   5 |   4 |  20 |  -  |     |     |     |
| Booth       | OK | OK  |   3 |   8 |   2 |  75 |  -  |     |     |     |
| Bus         | OK | OK  |  22 |   5 |   0 | 100 |  -  |     |     |     |
| Club        | OK | OK  |  25 |  17 |   0 | 100 |  -  |     |     |     |
| Colours     | OK | OK  |   7 |   1 |   1 |   0 |  -  |     |     |     |
| Colours2    | OK | OK  |  11 |   1 |   0 | 100 |  -  |     |     |     |
| Colours2R   | OK | OK  |  29 |  15 |   4 |  73 |  -  |     |     |     |
| ColoursR    | OK | OK  |   8 |   3 |   2 |  33 |  -  |     |     |     |
| ColoursR2   | OK | OK  |   8 |   3 |   2 |  33 |  -  |     |     |     |
| Customer    | OK | OK  |   3 |   1 |   0 | 100 |  -  |     |     |     |
| Doors       | OK | OK  |   2 |   6 |   0 | 100 |  -  |     |     |     |
| Exam        | OK | OK  |   5 |   2 |   0 | 100 |  -  |     |     |     |
| ExamR       | OK | OK  |  11 |   5 |   2 |  60 |  -  |     |     |     |
| Goods       | OK | OK  |   1 |   0 |   0 | 100 |  -  |     |     |     |
| Hotelguests | OK | OK  |  11 |   8 |   0 | 100 |  -  |     |     |     |
| Ironing     | OK |  -  |     |     |     |     |  -  |     |     |     |
| IroningR    | OK |  -  |     |     |     |     |  -  |     |     |     |
| Jobshop     | OK | OK  |   5 |   7 |   0 | 100 |  -  |     |     |     |
| Jukebox     | OK | OK  |  25 |  15 |   2 |  86 |  -  |     |     |     |
| JukeboxR    | OK | OK  |  54 |  51 |  11 |  78 |  -  |     |     |     |
| Keys        | OK | OK  |   4 |   2 |   0 | 100 |  -  |     |     |     |
| Life        | OK | OK  |  12 |   7 |   0 | 100 |  -  |     |     |     |
| List        | OK | OK  |   2 |   3 |   0 | 100 |  -  |     |     |     |
| Locks       | OK | OK  |   8 |  11 |   0 | 100 |  -  |     |     |     |
| Map         | OK | OK  |   4 |   3 |   0 | 100 |  -  |     |     |     |
| Marriage    | OK | OK  |   6 |   0 |   0 | 100 |  -  |     |     |     |
| Paperround  | OK | OK  |   9 |   8 |   0 | 100 |  -  |     |     |     |
| Player      | OK | OK  |   8 |   2 |   1 |  50 |  -  |     |     |     |
| Port        | OK | OK  |  13 |  16 |   4 |  75 |  -  |     |     |     |
| PortR       | OK | OK  |  32 |  18 |   3 |  83 |  -  |     |     |     |
| Price       | OK | OK  |   6 |   2 |   0 | 100 |  -  |     |     |     |
| Reading     | OK | OK  |  26 |  12 |   3 |  75 |  -  |     |     |     |
| Registrar   | OK | OK  |   9 |  29 |   6 |  79 |  -  |     |     |     |
| Results     | OK | OK  |   8 |   6 |   2 |  66 |  -  |     |     |     |
| Safes       | OK | OK  |  10 |   7 |   4 |  42 |  -  |     |     |     |
| Shop        | OK | OK  |  11 |   0 |   0 | 100 |  -  |     |     |     |
| Team        | OK | OK  |   6 |   4 |   1 |  75 |  -  |     |     |     |
| TeamR       | OK | OK  |  15 |  10 |   2 |  80 |  -  |     |     |     |
| Ticket      | OK | OK  |  13 |   6 |   0 | 100 |  -  |     |     |     |
| Towns       | OK | OK  |   5 |   2 |   0 | 100 |  -  |     |     |     |
| TownsR      | OK | OK  |  34 |  23 |  19 |  17 |  -  |     |     |     |
| TownsRR     | OK | OK  |  18 |  16 |  10 |  37 |  -  |     |     |     |
| TownsRRR    | OK | OK  |  30 |  16 |   6 |  62 |  -  |     |     |     |
+-------------+----+-----+-----+-----+-----+-----+-----+-----+-----+-----+
| TOTAL       | OK |  -  | 576 | 376 |  95 |  74 |  -  | OK  | OK  | OK  |
+-------------+----+-----+-----+-----+-----+-----+-----+-----+-----+-----+
jeu mai 13 16:26:56 CEST 2004
