%!PS-Adobe-2.0 EPSF-2.0
%%Title: BModule.eps
%%Creator: fig2dev Version 3.2 Patchlevel 0-beta3
%%CreationDate: Thu May 20 17:08:08 1999
%%For: mathon@jupiter (Sébastien Mathon)
%%Orientation: Portrait
%%BoundingBox: 0 0 212 182
%%Pages: 0
%%BeginSetup
%%EndSetup
%%Magnification: 1.0000
%%EndComments
/$F2psDict 200 dict def
$F2psDict begin
$F2psDict /mtrx matrix put
/col-1 {0 setgray} bind def
/col0 {0.000 0.000 0.000 srgb} bind def
/col1 {0.000 0.000 1.000 srgb} bind def
/col2 {0.000 1.000 0.000 srgb} bind def
/col3 {0.000 1.000 1.000 srgb} bind def
/col4 {1.000 0.000 0.000 srgb} bind def
/col5 {1.000 0.000 1.000 srgb} bind def
/col6 {1.000 1.000 0.000 srgb} bind def
/col7 {1.000 1.000 1.000 srgb} bind def
/col8 {0.000 0.000 0.560 srgb} bind def
/col9 {0.000 0.000 0.690 srgb} bind def
/col10 {0.000 0.000 0.820 srgb} bind def
/col11 {0.530 0.810 1.000 srgb} bind def
/col12 {0.000 0.560 0.000 srgb} bind def
/col13 {0.000 0.690 0.000 srgb} bind def
/col14 {0.000 0.820 0.000 srgb} bind def
/col15 {0.000 0.560 0.560 srgb} bind def
/col16 {0.000 0.690 0.690 srgb} bind def
/col17 {0.000 0.820 0.820 srgb} bind def
/col18 {0.560 0.000 0.000 srgb} bind def
/col19 {0.690 0.000 0.000 srgb} bind def
/col20 {0.820 0.000 0.000 srgb} bind def
/col21 {0.560 0.000 0.560 srgb} bind def
/col22 {0.690 0.000 0.690 srgb} bind def
/col23 {0.820 0.000 0.820 srgb} bind def
/col24 {0.500 0.190 0.000 srgb} bind def
/col25 {0.630 0.250 0.000 srgb} bind def
/col26 {0.750 0.380 0.000 srgb} bind def
/col27 {1.000 0.500 0.500 srgb} bind def
/col28 {1.000 0.630 0.630 srgb} bind def
/col29 {1.000 0.750 0.750 srgb} bind def
/col30 {1.000 0.880 0.880 srgb} bind def
/col31 {1.000 0.840 0.000 srgb} bind def

end
save
-251.0 289.0 translate
1 -1 scale

/cp {closepath} bind def
/ef {eofill} bind def
/gr {grestore} bind def
/gs {gsave} bind def
/sa {save} bind def
/rs {restore} bind def
/l {lineto} bind def
/m {moveto} bind def
/rm {rmoveto} bind def
/n {newpath} bind def
/s {stroke} bind def
/sh {show} bind def
/slc {setlinecap} bind def
/slj {setlinejoin} bind def
/slw {setlinewidth} bind def
/srgb {setrgbcolor} bind def
/rot {rotate} bind def
/sc {scale} bind def
/sd {setdash} bind def
/ff {findfont} bind def
/sf {setfont} bind def
/scf {scalefont} bind def
/sw {stringwidth} bind def
/tr {translate} bind def
/tnt {dup dup currentrgbcolor
  4 -2 roll dup 1 exch sub 3 -1 roll mul add
  4 -2 roll dup 1 exch sub 3 -1 roll mul add
  4 -2 roll dup 1 exch sub 3 -1 roll mul add srgb}
  bind def
/shd {dup dup currentrgbcolor 4 -2 roll mul 4 -2 roll mul
  4 -2 roll mul srgb} bind def
 /DrawEllipse {
	/endangle exch def
	/startangle exch def
	/yrad exch def
	/xrad exch def
	/y exch def
	/x exch def
	/savematrix mtrx currentmatrix def
	x y tr xrad yrad sc 0 0 1 startangle endangle arc
	closepath
	savematrix setmatrix
	} def

/$F2psBegin {$F2psDict begin /$F2psEnteredState save def} def
/$F2psEnd {$F2psEnteredState restore end} def
%%EndProlog

$F2psBegin
10 setmiterlimit
n -1000 5812 m -1000 -1000 l 8711 -1000 l 8711 5812 l cp clip
 0.06000 0.06000 sc
7.500 slw
% Ellipse
n 5200 2550 500 250 0 360 DrawEllipse gs col0 s gr

% Polyline
n 4790 3050 m 4700 3050 4700 3460 90 arcto 4 {pop} repeat
  4700 3550 5610 3550 90 arcto 4 {pop} repeat
  5700 3550 5700 3140 90 arcto 4 {pop} repeat
  5700 3050 4790 3050 90 arcto 4 {pop} repeat
 cp gs col0 s gr 
% Polyline
n 4700 3800 m 5700 3800 l 5700 4300 l 4700 4300 l cp gs col0 s gr 
% Polyline
n 4540 2050 m 4450 2050 4450 4460 90 arcto 4 {pop} repeat
  4450 4550 5860 4550 90 arcto 4 {pop} repeat
  5950 4550 5950 2140 90 arcto 4 {pop} repeat
  5950 2050 4540 2050 90 arcto 4 {pop} repeat
 cp gs col0 s gr 
% Polyline
gs  clippath
5847 2580 m 5727 2550 l 5847 2520 l 5685 2520 l 5685 2580 l cp
clip
n 5700 2550 m 6199 2550 l gs col0 s gr gr

% arrowhead
n 5847 2580 m 5727 2550 l 5847 2520 l 5847 2550 l 5847 2580 l  cp gs col7 1.00 shd ef gr  col0 s
% Polyline
gs  clippath
5847 3330 m 5727 3300 l 5847 3270 l 5685 3270 l 5685 3330 l cp
clip
n 5700 3300 m 6199 3300 l gs col0 s gr gr

% arrowhead
n 5847 3330 m 5727 3300 l 5847 3270 l 5847 3300 l 5847 3330 l  cp gs col7 1.00 shd ef gr  col0 s
% Polyline
gs  clippath
5847 4080 m 5727 4050 l 5847 4020 l 5685 4020 l 5685 4080 l cp
clip
n 5700 4050 m 6199 4050 l gs col0 s gr gr

% arrowhead
n 5847 4080 m 5727 4050 l 5847 4020 l 5847 4050 l 5847 4080 l  cp gs col7 1.00 shd ef gr  col0 s
% Polyline
gs  clippath
5230 2903 m 5200 3023 l 5170 2903 l 5170 3065 l 5230 3065 l cp
clip
n 5200 2800 m 5200 3050 l gs col0 s gr gr

% arrowhead
n 5230 2903 m 5200 3023 l 5170 2903 l 5200 2903 l 5230 2903 l  cp gs 0.00 setgray ef gr  col0 s
% Polyline
gs  clippath
5230 3653 m 5200 3773 l 5170 3653 l 5170 3815 l 5230 3815 l cp
clip
n 5200 3550 m 5200 3800 l gs col0 s gr gr

% arrowhead
n 5230 3653 m 5200 3773 l 5170 3653 l 5200 3653 l 5230 3653 l  cp gs 0.00 setgray ef gr  col0 s
% Polyline
 [60] 0 sd
n 4290 1800 m 4200 1800 4200 4710 90 arcto 4 {pop} repeat
  4200 4800 7609 4800 90 arcto 4 {pop} repeat
  7699 4800 7699 1890 90 arcto 4 {pop} repeat
  7699 1800 4290 1800 90 arcto 4 {pop} repeat
 cp gs col0 s gr  [] 0 sd
/Times-Roman ff 180.00 scf sf
6449 2550 m
gs 1 -1 sc (machine) col0 sh gr
/Times-Roman ff 180.00 scf sf
6449 3300 m
gs 1 -1 sc (raffinement) col0 sh gr
/Times-Roman ff 180.00 scf sf
6449 4050 m
gs 1 -1 sc (implementation) col0 sh gr
$F2psEnd
rs
