%!PS-Adobe-2.0 EPSF-2.0
%%Title: BProjet.eps
%%Creator: fig2dev Version 3.2 Patchlevel 0-beta3
%%CreationDate: Thu May 20 14:33:39 1999
%%For: mathon@jupiter (Sébastien Mathon)
%%Orientation: Portrait
%%BoundingBox: 0 0 659 812
%%Pages: 0
%%BeginSetup
%%EndSetup
%%Magnification: 1.0000
%%EndComments
/$F2psDict 200 dict def
$F2psDict begin
$F2psDict /mtrx matrix put
/col-1 {0 setgray} bind def
/col0 {0.000 0.000 0.000 srgb} bind def
/col1 {0.000 0.000 1.000 srgb} bind def
/col2 {0.000 1.000 0.000 srgb} bind def
/col3 {0.000 1.000 1.000 srgb} bind def
/col4 {1.000 0.000 0.000 srgb} bind def
/col5 {1.000 0.000 1.000 srgb} bind def
/col6 {1.000 1.000 0.000 srgb} bind def
/col7 {1.000 1.000 1.000 srgb} bind def
/col8 {0.000 0.000 0.560 srgb} bind def
/col9 {0.000 0.000 0.690 srgb} bind def
/col10 {0.000 0.000 0.820 srgb} bind def
/col11 {0.530 0.810 1.000 srgb} bind def
/col12 {0.000 0.560 0.000 srgb} bind def
/col13 {0.000 0.690 0.000 srgb} bind def
/col14 {0.000 0.820 0.000 srgb} bind def
/col15 {0.000 0.560 0.560 srgb} bind def
/col16 {0.000 0.690 0.690 srgb} bind def
/col17 {0.000 0.820 0.820 srgb} bind def
/col18 {0.560 0.000 0.000 srgb} bind def
/col19 {0.690 0.000 0.000 srgb} bind def
/col20 {0.820 0.000 0.000 srgb} bind def
/col21 {0.560 0.000 0.560 srgb} bind def
/col22 {0.690 0.000 0.690 srgb} bind def
/col23 {0.820 0.000 0.820 srgb} bind def
/col24 {0.500 0.190 0.000 srgb} bind def
/col25 {0.630 0.250 0.000 srgb} bind def
/col26 {0.750 0.380 0.000 srgb} bind def
/col27 {1.000 0.500 0.500 srgb} bind def
/col28 {1.000 0.630 0.630 srgb} bind def
/col29 {1.000 0.750 0.750 srgb} bind def
/col30 {1.000 0.880 0.880 srgb} bind def
/col31 {1.000 0.840 0.000 srgb} bind def

end
save
-17.0 829.0 translate
1 -1 scale

/cp {closepath} bind def
/ef {eofill} bind def
/gr {grestore} bind def
/gs {gsave} bind def
/sa {save} bind def
/rs {restore} bind def
/l {lineto} bind def
/m {moveto} bind def
/rm {rmoveto} bind def
/n {newpath} bind def
/s {stroke} bind def
/sh {show} bind def
/slc {setlinecap} bind def
/slj {setlinejoin} bind def
/slw {setlinewidth} bind def
/srgb {setrgbcolor} bind def
/rot {rotate} bind def
/sc {scale} bind def
/sd {setdash} bind def
/ff {findfont} bind def
/sf {setfont} bind def
/scf {scalefont} bind def
/sw {stringwidth} bind def
/tr {translate} bind def
/tnt {dup dup currentrgbcolor
  4 -2 roll dup 1 exch sub 3 -1 roll mul add
  4 -2 roll dup 1 exch sub 3 -1 roll mul add
  4 -2 roll dup 1 exch sub 3 -1 roll mul add srgb}
  bind def
/shd {dup dup currentrgbcolor 4 -2 roll mul 4 -2 roll mul
  4 -2 roll mul srgb} bind def
 /DrawEllipse {
	/endangle exch def
	/startangle exch def
	/yrad exch def
	/xrad exch def
	/y exch def
	/x exch def
	/savematrix mtrx currentmatrix def
	x y tr xrad yrad sc 0 0 1 startangle endangle arc
	closepath
	savematrix setmatrix
	} def

/$F2psBegin {$F2psDict begin /$F2psEnteredState save def} def
/$F2psEnd {$F2psEnteredState restore end} def
%%EndProlog

$F2psBegin
10 setmiterlimit
n -1000 14812 m -1000 -1000 l 12261 -1000 l 12261 14812 l cp clip
 0.06000 0.06000 sc
7.500 slw
% Ellipse
n 3630 4620 420 210 0 360 DrawEllipse gs col0 s gr

% Polyline
n 3285 5040 m 3210 5040 3210 5385 75 arcto 4 {pop} repeat
  3210 5460 3975 5460 75 arcto 4 {pop} repeat
  4050 5460 4050 5115 75 arcto 4 {pop} repeat
  4050 5040 3285 5040 75 arcto 4 {pop} repeat
 cp gs col0 s gr 
% Polyline
n 3210 5670 m 4050 5670 l 4050 6090 l 3210 6090 l cp gs col0 s gr 
% Polyline
n 3075 4200 m 3000 4200 3000 6225 75 arcto 4 {pop} repeat
  3000 6300 4185 6300 75 arcto 4 {pop} repeat
  4260 6300 4260 4275 75 arcto 4 {pop} repeat
  4260 4200 3075 4200 75 arcto 4 {pop} repeat
 cp gs col0 s gr 
% Polyline
gs  clippath
3660 4893 m 3630 5013 l 3600 4893 l 3600 5055 l 3660 5055 l cp
clip
n 3630 4830 m 3630 5040 l gs col0 s gr gr

% arrowhead
n 3660 4893 m 3630 5013 l 3600 4893 l 3630 4893 l 3660 4893 l  cp gs 0.00 setgray ef gr  col0 s
% Polyline
gs  clippath
3660 5523 m 3630 5643 l 3600 5523 l 3600 5685 l 3660 5685 l cp
clip
n 3630 5460 m 3630 5670 l gs col0 s gr gr

% arrowhead
n 3660 5523 m 3630 5643 l 3600 5523 l 3630 5523 l 3660 5523 l  cp gs 0.00 setgray ef gr  col0 s
% Ellipse
n 8130 4620 420 210 0 360 DrawEllipse gs col0 s gr

% Polyline
n 7785 5040 m 7710 5040 7710 5385 75 arcto 4 {pop} repeat
  7710 5460 8475 5460 75 arcto 4 {pop} repeat
  8550 5460 8550 5115 75 arcto 4 {pop} repeat
  8550 5040 7785 5040 75 arcto 4 {pop} repeat
 cp gs col0 s gr 
% Polyline
n 7710 5670 m 8550 5670 l 8550 6090 l 7710 6090 l cp gs col0 s gr 
% Polyline
n 7575 4200 m 7500 4200 7500 6225 75 arcto 4 {pop} repeat
  7500 6300 8685 6300 75 arcto 4 {pop} repeat
  8760 6300 8760 4275 75 arcto 4 {pop} repeat
  8760 4200 7575 4200 75 arcto 4 {pop} repeat
 cp gs col0 s gr 
% Polyline
gs  clippath
8160 4893 m 8130 5013 l 8100 4893 l 8100 5055 l 8160 5055 l cp
clip
n 8130 4830 m 8130 5040 l gs col0 s gr gr

% arrowhead
n 8160 4893 m 8130 5013 l 8100 4893 l 8130 4893 l 8160 4893 l  cp gs 0.00 setgray ef gr  col0 s
% Polyline
gs  clippath
8160 5523 m 8130 5643 l 8100 5523 l 8100 5685 l 8160 5685 l cp
clip
n 8130 5460 m 8130 5670 l gs col0 s gr gr

% arrowhead
n 8160 5523 m 8130 5643 l 8100 5523 l 8130 5523 l 8160 5523 l  cp gs 0.00 setgray ef gr  col0 s
% Ellipse
n 2130 7920 420 210 0 360 DrawEllipse gs col0 s gr

% Polyline
n 1785 8340 m 1710 8340 1710 8685 75 arcto 4 {pop} repeat
  1710 8760 2475 8760 75 arcto 4 {pop} repeat
  2550 8760 2550 8415 75 arcto 4 {pop} repeat
  2550 8340 1785 8340 75 arcto 4 {pop} repeat
 cp gs col0 s gr 
% Polyline
n 1710 8970 m 2550 8970 l 2550 9390 l 1710 9390 l cp gs col0 s gr 
% Polyline
n 1575 7500 m 1500 7500 1500 9525 75 arcto 4 {pop} repeat
  1500 9600 2685 9600 75 arcto 4 {pop} repeat
  2760 9600 2760 7575 75 arcto 4 {pop} repeat
  2760 7500 1575 7500 75 arcto 4 {pop} repeat
 cp gs col0 s gr 
% Polyline
gs  clippath
2160 8193 m 2130 8313 l 2100 8193 l 2100 8355 l 2160 8355 l cp
clip
n 2130 8130 m 2130 8340 l gs col0 s gr gr

% arrowhead
n 2160 8193 m 2130 8313 l 2100 8193 l 2130 8193 l 2160 8193 l  cp gs 0.00 setgray ef gr  col0 s
% Polyline
gs  clippath
2160 8823 m 2130 8943 l 2100 8823 l 2100 8985 l 2160 8985 l cp
clip
n 2130 8760 m 2130 8970 l gs col0 s gr gr

% arrowhead
n 2160 8823 m 2130 8943 l 2100 8823 l 2130 8823 l 2160 8823 l  cp gs 0.00 setgray ef gr  col0 s
% Ellipse
n 5130 7920 420 210 0 360 DrawEllipse gs col0 s gr

% Polyline
n 4785 8340 m 4710 8340 4710 8685 75 arcto 4 {pop} repeat
  4710 8760 5475 8760 75 arcto 4 {pop} repeat
  5550 8760 5550 8415 75 arcto 4 {pop} repeat
  5550 8340 4785 8340 75 arcto 4 {pop} repeat
 cp gs col0 s gr 
% Polyline
n 4710 8970 m 5550 8970 l 5550 9390 l 4710 9390 l cp gs col0 s gr 
% Polyline
n 4575 7500 m 4500 7500 4500 9525 75 arcto 4 {pop} repeat
  4500 9600 5685 9600 75 arcto 4 {pop} repeat
  5760 9600 5760 7575 75 arcto 4 {pop} repeat
  5760 7500 4575 7500 75 arcto 4 {pop} repeat
 cp gs col0 s gr 
% Polyline
gs  clippath
5160 8193 m 5130 8313 l 5100 8193 l 5100 8355 l 5160 8355 l cp
clip
n 5130 8130 m 5130 8340 l gs col0 s gr gr

% arrowhead
n 5160 8193 m 5130 8313 l 5100 8193 l 5130 8193 l 5160 8193 l  cp gs 0.00 setgray ef gr  col0 s
% Polyline
gs  clippath
5160 8823 m 5130 8943 l 5100 8823 l 5100 8985 l 5160 8985 l cp
clip
n 5130 8760 m 5130 8970 l gs col0 s gr gr

% arrowhead
n 5160 8823 m 5130 8943 l 5100 8823 l 5130 8823 l 5160 8823 l  cp gs 0.00 setgray ef gr  col0 s
% Ellipse
n 8130 7920 420 210 0 360 DrawEllipse gs col0 s gr

% Polyline
n 7785 8340 m 7710 8340 7710 8685 75 arcto 4 {pop} repeat
  7710 8760 8475 8760 75 arcto 4 {pop} repeat
  8550 8760 8550 8415 75 arcto 4 {pop} repeat
  8550 8340 7785 8340 75 arcto 4 {pop} repeat
 cp gs col0 s gr 
% Polyline
n 7710 8970 m 8550 8970 l 8550 9390 l 7710 9390 l cp gs col0 s gr 
% Polyline
n 7575 7500 m 7500 7500 7500 9525 75 arcto 4 {pop} repeat
  7500 9600 8685 9600 75 arcto 4 {pop} repeat
  8760 9600 8760 7575 75 arcto 4 {pop} repeat
  8760 7500 7575 7500 75 arcto 4 {pop} repeat
 cp gs col0 s gr 
% Polyline
gs  clippath
8160 8193 m 8130 8313 l 8100 8193 l 8100 8355 l 8160 8355 l cp
clip
n 8130 8130 m 8130 8340 l gs col0 s gr gr

% arrowhead
n 8160 8193 m 8130 8313 l 8100 8193 l 8130 8193 l 8160 8193 l  cp gs 0.00 setgray ef gr  col0 s
% Polyline
gs  clippath
8160 8823 m 8130 8943 l 8100 8823 l 8100 8985 l 8160 8985 l cp
clip
n 8130 8760 m 8130 8970 l gs col0 s gr gr

% arrowhead
n 8160 8823 m 8130 8943 l 8100 8823 l 8130 8823 l 8160 8823 l  cp gs 0.00 setgray ef gr  col0 s
% Ellipse
n 6030 1320 420 210 0 360 DrawEllipse gs col0 s gr

% Polyline
n 5685 1740 m 5610 1740 5610 2085 75 arcto 4 {pop} repeat
  5610 2160 6375 2160 75 arcto 4 {pop} repeat
  6450 2160 6450 1815 75 arcto 4 {pop} repeat
  6450 1740 5685 1740 75 arcto 4 {pop} repeat
 cp gs col0 s gr 
% Polyline
n 5610 2370 m 6450 2370 l 6450 2790 l 5610 2790 l cp gs col0 s gr 
% Polyline
n 5475 900 m 5400 900 5400 2925 75 arcto 4 {pop} repeat
  5400 3000 6585 3000 75 arcto 4 {pop} repeat
  6660 3000 6660 975 75 arcto 4 {pop} repeat
  6660 900 5475 900 75 arcto 4 {pop} repeat
 cp gs col0 s gr 
% Polyline
gs  clippath
6060 1593 m 6030 1713 l 6000 1593 l 6000 1755 l 6060 1755 l cp
clip
n 6030 1530 m 6030 1740 l gs col0 s gr gr

% arrowhead
n 6060 1593 m 6030 1713 l 6000 1593 l 6030 1593 l 6060 1593 l  cp gs 0.00 setgray ef gr  col0 s
% Polyline
gs  clippath
6060 2223 m 6030 2343 l 6000 2223 l 6000 2385 l 6060 2385 l cp
clip
n 6030 2160 m 6030 2370 l gs col0 s gr gr

% arrowhead
n 6060 2223 m 6030 2343 l 6000 2223 l 6030 2223 l 6060 2223 l  cp gs 0.00 setgray ef gr  col0 s
% Polyline
n 600 10500 m 1200 10500 l 1200 11100 l 600 11100 l cp gs col0 s gr 
% Polyline
n 600 10500 m 900 11100 l 1200 10500 l gs col0 s gr 
% Polyline
n 1800 10500 m 2400 10500 l 2400 11100 l 1800 11100 l cp gs col0 s gr 
% Polyline
n 1800 10500 m 2100 11100 l 2400 10500 l gs col0 s gr 
% Polyline
n 3000 10500 m 3600 10500 l 3600 11100 l 3000 11100 l cp gs col0 s gr 
% Polyline
n 3000 10500 m 3300 11100 l 3600 10500 l gs col0 s gr 
% Polyline
n 4800 10500 m 5400 10500 l 5400 11100 l 4800 11100 l cp gs col0 s gr 
% Polyline
n 4800 10500 m 5100 11100 l 5400 10500 l gs col0 s gr 
% Polyline
n 6600 10500 m 7200 10500 l 7200 11100 l 6600 11100 l cp gs col0 s gr 
% Polyline
n 6600 10500 m 6900 11100 l 7200 10500 l gs col0 s gr 
% Polyline
n 7800 10500 m 8400 10500 l 8400 11100 l 7800 11100 l cp gs col0 s gr 
% Polyline
n 7800 10500 m 8100 11100 l 8400 10500 l gs col0 s gr 
% Polyline
n 9000 10500 m 9600 10500 l 9600 11100 l 9000 11100 l cp gs col0 s gr 
% Polyline
n 9000 10500 m 9300 11100 l 9600 10500 l gs col0 s gr 
% Polyline
 [60] 0 sd
n 405 12300 m 300 12300 300 13695 105 arcto 4 {pop} repeat
  300 13800 9795 13800 105 arcto 4 {pop} repeat
  9900 13800 9900 12405 105 arcto 4 {pop} repeat
  9900 12300 405 12300 105 arcto 4 {pop} repeat
 cp gs col0 s gr  [] 0 sd
% Polyline
n 600 12600 m 1200 12600 l 1200 13500 l 600 13500 l cp gs col0 s gr 
% Polyline
n 1800 12600 m 2400 12600 l 2400 13500 l 1800 13500 l cp gs col0 s gr 
% Polyline
n 3000 12600 m 3600 12600 l 3600 13500 l 3000 13500 l cp gs col0 s gr 
% Polyline
n 4800 12600 m 5400 12600 l 5400 13500 l 4800 13500 l cp gs col0 s gr 
% Polyline
n 7800 12600 m 8400 12600 l 8400 13500 l 7800 13500 l cp gs col0 s gr 
% Polyline
n 9000 12600 m 9600 12600 l 9600 13500 l 9000 13500 l cp gs col0 s gr 
% Polyline
n 6600 12600 m 7200 12600 l 7200 13500 l 6600 13500 l cp gs col0 s gr 
% Polyline
gs  clippath
930 11553 m 900 11673 l 870 11553 l 870 11715 l 930 11715 l cp
clip
n 900 11400 m 900 11700 l gs col0 s gr gr

% arrowhead
n 930 11553 m 900 11673 l 870 11553 l 900 11553 l 930 11553 l  cp gs 0.00 setgray ef gr  col0 s
% Polyline
gs  clippath
2130 11553 m 2100 11673 l 2070 11553 l 2070 11715 l 2130 11715 l cp
clip
n 2100 11400 m 2100 11700 l gs col0 s gr gr

% arrowhead
n 2130 11553 m 2100 11673 l 2070 11553 l 2100 11553 l 2130 11553 l  cp gs 0.00 setgray ef gr  col0 s
% Polyline
gs  clippath
3330 11553 m 3300 11673 l 3270 11553 l 3270 11715 l 3330 11715 l cp
clip
n 3300 11400 m 3300 11700 l gs col0 s gr gr

% arrowhead
n 3330 11553 m 3300 11673 l 3270 11553 l 3300 11553 l 3330 11553 l  cp gs 0.00 setgray ef gr  col0 s
% Polyline
gs  clippath
5130 11553 m 5100 11673 l 5070 11553 l 5070 11715 l 5130 11715 l cp
clip
n 5100 11400 m 5100 11700 l gs col0 s gr gr

% arrowhead
n 5130 11553 m 5100 11673 l 5070 11553 l 5100 11553 l 5130 11553 l  cp gs 0.00 setgray ef gr  col0 s
% Polyline
gs  clippath
6930 11553 m 6900 11673 l 6870 11553 l 6870 11715 l 6930 11715 l cp
clip
n 6900 11400 m 6900 11700 l gs col0 s gr gr

% arrowhead
n 6930 11553 m 6900 11673 l 6870 11553 l 6900 11553 l 6930 11553 l  cp gs 0.00 setgray ef gr  col0 s
% Polyline
gs  clippath
8130 11553 m 8100 11673 l 8070 11553 l 8070 11715 l 8130 11715 l cp
clip
n 8100 11400 m 8100 11700 l gs col0 s gr gr

% arrowhead
n 8130 11553 m 8100 11673 l 8070 11553 l 8100 11553 l 8130 11553 l  cp gs 0.00 setgray ef gr  col0 s
% Polyline
gs  clippath
9330 11553 m 9300 11673 l 9270 11553 l 9270 11715 l 9330 11715 l cp
clip
n 9300 11400 m 9300 11700 l gs col0 s gr gr

% arrowhead
n 9330 11553 m 9300 11673 l 9270 11553 l 9300 11553 l 9330 11553 l  cp gs 0.00 setgray ef gr  col0 s
% Polyline
gs  clippath
930 12153 m 900 12273 l 870 12153 l 870 12315 l 930 12315 l cp
clip
n 900 12000 m 900 12300 l gs col0 s gr gr

% arrowhead
n 930 12153 m 900 12273 l 870 12153 l 900 12153 l 930 12153 l  cp gs 0.00 setgray ef gr  col0 s
% Polyline
gs  clippath
2130 12153 m 2100 12273 l 2070 12153 l 2070 12315 l 2130 12315 l cp
clip
n 2100 12000 m 2100 12300 l gs col0 s gr gr

% arrowhead
n 2130 12153 m 2100 12273 l 2070 12153 l 2100 12153 l 2130 12153 l  cp gs 0.00 setgray ef gr  col0 s
% Polyline
gs  clippath
3330 12153 m 3300 12273 l 3270 12153 l 3270 12315 l 3330 12315 l cp
clip
n 3300 12000 m 3300 12300 l gs col0 s gr gr

% arrowhead
n 3330 12153 m 3300 12273 l 3270 12153 l 3300 12153 l 3330 12153 l  cp gs 0.00 setgray ef gr  col0 s
% Polyline
gs  clippath
5130 12153 m 5100 12273 l 5070 12153 l 5070 12315 l 5130 12315 l cp
clip
n 5100 12000 m 5100 12300 l gs col0 s gr gr

% arrowhead
n 5130 12153 m 5100 12273 l 5070 12153 l 5100 12153 l 5130 12153 l  cp gs 0.00 setgray ef gr  col0 s
% Polyline
gs  clippath
6930 12153 m 6900 12273 l 6870 12153 l 6870 12315 l 6930 12315 l cp
clip
n 6900 12000 m 6900 12300 l gs col0 s gr gr

% arrowhead
n 6930 12153 m 6900 12273 l 6870 12153 l 6900 12153 l 6930 12153 l  cp gs 0.00 setgray ef gr  col0 s
% Polyline
gs  clippath
8130 12153 m 8100 12273 l 8070 12153 l 8070 12315 l 8130 12315 l cp
clip
n 8100 12000 m 8100 12300 l gs col0 s gr gr

% arrowhead
n 8130 12153 m 8100 12273 l 8070 12153 l 8100 12153 l 8130 12153 l  cp gs 0.00 setgray ef gr  col0 s
% Polyline
gs  clippath
9330 12153 m 9300 12273 l 9270 12153 l 9270 12315 l 9330 12315 l cp
clip
n 9300 12000 m 9300 12300 l gs col0 s gr gr

% arrowhead
n 9330 12153 m 9300 12273 l 9270 12153 l 9300 12153 l 9330 12153 l  cp gs 0.00 setgray ef gr  col0 s
% Ellipse
n 1000 825 350 175 0 360 DrawEllipse gs col0 s gr

% Polyline
gs  clippath
8130 4053 m 8100 4173 l 8070 4053 l 8070 4215 l 8130 4215 l cp
3630 4053 m 3600 4173 l 3570 4053 l 3570 4215 l 3630 4215 l cp
clip
n 3600 4200 m 3600 3600 l 8100 3600 l 8100 4200 l gs col0 s gr gr

% arrowhead
n 3630 4053 m 3600 4173 l 3570 4053 l 3600 4053 l 3630 4053 l  cp gs 0.00 setgray ef gr  col0 s
% arrowhead
n 8130 4053 m 8100 4173 l 8070 4053 l 8100 4053 l 8130 4053 l  cp gs 0.00 setgray ef gr  col0 s
% Polyline
gs  clippath
6030 3453 m 6000 3573 l 5970 3453 l 5970 3615 l 6030 3615 l cp
clip
n 6000 3000 m 6000 3600 l gs col0 s gr gr

% arrowhead
n 6030 3453 m 6000 3573 l 5970 3453 l 6000 3453 l 6030 3453 l  cp gs 0.00 setgray ef gr  col0 s
% Polyline
gs  clippath
5130 7353 m 5100 7473 l 5070 7353 l 5070 7515 l 5130 7515 l cp
clip
n 5100 7500 m 5100 6900 l 2100 6900 l 2100 7500 l gs col0 s gr gr

% arrowhead
n 5130 7353 m 5100 7473 l 5070 7353 l 5100 7353 l 5130 7353 l  cp gs 0.00 setgray ef gr  col0 s
% Polyline
n 3600 6900 m 3600 6300 l gs col0 s gr 
% Polyline
gs  clippath
8130 7353 m 8100 7473 l 8070 7353 l 8070 7515 l 8130 7515 l cp
clip
n 8100 6300 m 8100 7500 l gs col0 s gr gr

% arrowhead
n 8130 7353 m 8100 7473 l 8070 7353 l 8100 7353 l 8130 7353 l  cp gs 0.00 setgray ef gr  col0 s
% Polyline
gs  clippath
2130 10053 m 2100 10173 l 2070 10053 l 2070 10215 l 2130 10215 l cp
clip
n 2100 9600 m 2100 10200 l gs col0 s gr gr

% arrowhead
n 2130 10053 m 2100 10173 l 2070 10053 l 2100 10053 l 2130 10053 l  cp gs 0.00 setgray ef gr  col0 s
% Polyline
gs  clippath
5130 10053 m 5100 10173 l 5070 10053 l 5070 10215 l 5130 10215 l cp
clip
n 5100 9600 m 5100 10200 l gs col0 s gr gr

% arrowhead
n 5130 10053 m 5100 10173 l 5070 10053 l 5100 10053 l 5130 10053 l  cp gs 0.00 setgray ef gr  col0 s
% Polyline
gs  clippath
8130 10053 m 8100 10173 l 8070 10053 l 8070 10215 l 8130 10215 l cp
clip
n 8100 9600 m 8100 10200 l gs col0 s gr gr

% arrowhead
n 8130 10053 m 8100 10173 l 8070 10053 l 8100 10053 l 8130 10053 l  cp gs 0.00 setgray ef gr  col0 s
% Polyline
gs  clippath
930 10053 m 900 10173 l 870 10053 l 870 10215 l 930 10215 l cp
clip
n 900 10200 m 900 9900 l gs col0 s gr gr

% arrowhead
n 930 10053 m 900 10173 l 870 10053 l 900 10053 l 930 10053 l  cp gs 0.00 setgray ef gr  col0 s
% Polyline
gs  clippath
3330 10053 m 3300 10173 l 3270 10053 l 3270 10215 l 3330 10215 l cp
clip
n 900 9900 m 3300 9900 l 3300 10200 l gs col0 s gr gr

% arrowhead
n 3330 10053 m 3300 10173 l 3270 10053 l 3300 10053 l 3330 10053 l  cp gs 0.00 setgray ef gr  col0 s
% Polyline
gs  clippath
9330 10053 m 9300 10173 l 9270 10053 l 9270 10215 l 9330 10215 l cp
6930 10053 m 6900 10173 l 6870 10053 l 6870 10215 l 6930 10215 l cp
clip
n 6900 10200 m 6900 9900 l 9300 9900 l 9300 10200 l gs col0 s gr gr

% arrowhead
n 6930 10053 m 6900 10173 l 6870 10053 l 6900 10053 l 6930 10053 l  cp gs 0.00 setgray ef gr  col0 s
% arrowhead
n 9330 10053 m 9300 10173 l 9270 10053 l 9300 10053 l 9330 10053 l  cp gs 0.00 setgray ef gr  col0 s
% Polyline
 [60] 0 sd
n 405 10200 m 300 10200 300 11295 105 arcto 4 {pop} repeat
  300 11400 9795 11400 105 arcto 4 {pop} repeat
  9900 11400 9900 10305 105 arcto 4 {pop} repeat
  9900 10200 405 10200 105 arcto 4 {pop} repeat
 cp gs col0 s gr  [] 0 sd
% Polyline
n 405 11700 m 300 11700 300 11895 105 arcto 4 {pop} repeat
  300 12000 9795 12000 105 arcto 4 {pop} repeat
  9900 12000 9900 11805 105 arcto 4 {pop} repeat
  9900 11700 405 11700 105 arcto 4 {pop} repeat
 cp gs col0 s gr 
% Polyline
gs  clippath
1322 855 m 1202 825 l 1322 795 l 1160 795 l 1160 855 l cp
clip
n 1700 825 m 1175 825 l gs col0 s gr gr

% arrowhead
n 1322 855 m 1202 825 l 1322 795 l 1322 825 l 1322 855 l  cp gs 0.00 setgray ef gr  col0 s
% Polyline
gs  clippath
1322 1380 m 1202 1350 l 1322 1320 l 1160 1320 l 1160 1380 l cp
clip
n 1700 1350 m 1175 1350 l gs col0 s gr gr

% arrowhead
n 1322 1380 m 1202 1350 l 1322 1320 l 1322 1350 l 1322 1380 l  cp gs 0.00 setgray ef gr  col0 s
% Polyline
gs  clippath
1322 1905 m 1202 1875 l 1322 1845 l 1160 1845 l 1160 1905 l cp
clip
n 1700 1875 m 1175 1875 l gs col0 s gr gr

% arrowhead
n 1322 1905 m 1202 1875 l 1322 1845 l 1322 1875 l 1322 1905 l  cp gs 0.00 setgray ef gr  col0 s
% Polyline
n 755 1175 m 650 1175 650 1420 105 arcto 4 {pop} repeat
  650 1525 1245 1525 105 arcto 4 {pop} repeat
  1350 1525 1350 1280 105 arcto 4 {pop} repeat
  1350 1175 755 1175 105 arcto 4 {pop} repeat
 cp gs col0 s gr 
% Polyline
n 650 1700 m 1350 1700 l 1350 2050 l 650 2050 l cp gs col0 s gr 
% Polyline
n 580 475 m 475 475 475 2120 105 arcto 4 {pop} repeat
  475 2225 1420 2225 105 arcto 4 {pop} repeat
  1525 2225 1525 580 105 arcto 4 {pop} repeat
  1525 475 580 475 105 arcto 4 {pop} repeat
 cp gs col0 s gr 
% Polyline
n 405 300 m 300 300 300 2295 105 arcto 4 {pop} repeat
  300 2400 3495 2400 105 arcto 4 {pop} repeat
  3600 2400 3600 405 105 arcto 4 {pop} repeat
  3600 300 405 300 105 arcto 4 {pop} repeat
 cp gs col0 s gr 
/Times-Roman ff 210.00 scf sf
6900 1200 m
gs 1 -1 sc (M) col0 sh gr
/Times-Roman ff 210.00 scf sf
4500 4500 m
gs 1 -1 sc (M.1) col0 sh gr
/Times-Roman ff 210.00 scf sf
9000 4500 m
gs 1 -1 sc (M.2) col0 sh gr
/Times-Roman ff 210.00 scf sf
9000 7800 m
gs 1 -1 sc (M.2.1) col0 sh gr
/Times-Roman ff 210.00 scf sf
6000 7800 m
gs 1 -1 sc (M.1.2) col0 sh gr
/Times-Roman ff 210.00 scf sf
3000 7800 m
gs 1 -1 sc (M.1.1) col0 sh gr
/Times-Roman ff 210.00 scf sf
10200 10500 m
gs 1 -1 sc (librairie) col0 sh gr
/Times-Roman ff 210.00 scf sf
10200 10740 m
gs 1 -1 sc (de machines) col0 sh gr
/Times-Roman ff 210.00 scf sf
10200 10980 m
gs 1 -1 sc (de base) col0 sh gr
/Times-Roman ff 210.00 scf sf
10200 12900 m
gs 1 -1 sc (code) col0 sh gr
/Times-Roman ff 210.00 scf sf
3540 11910 m
gs 1 -1 sc (Traduction automatique vers le lagage source) col0 sh gr
/Times-Roman ff 210.00 scf sf
10200 13140 m
gs 1 -1 sc (genere) col0 sh gr
/Times-Roman ff 210.00 scf sf
600 2700 m
gs 1 -1 sc (module) col0 sh gr
/Times-Roman ff 210.00 scf sf
1875 825 m
gs 1 -1 sc (machine) col0 sh gr
/Times-Roman ff 210.00 scf sf
1875 1350 m
gs 1 -1 sc (rafinement\(s\)) col0 sh gr
/Times-Roman ff 210.00 scf sf
1875 1875 m
gs 1 -1 sc (implementation) col0 sh gr
$F2psEnd
rs
