%!PS-Adobe-2.0 EPSF-2.0
%%Title: decompose3.eps
%%Creator: fig2dev Version 3.2 Patchlevel 3c
%%CreationDate: Thu Nov  9 19:38:39 2000
%%For: atelierb@sphynx ()
%%BoundingBox: 0 0 464 408
%%Magnification: 1.0000
%%EndComments
/$F2psDict 200 dict def
$F2psDict begin
$F2psDict /mtrx matrix put
/col-1 {0 setgray} bind def
/col0 {0.000 0.000 0.000 srgb} bind def
/col1 {0.000 0.000 1.000 srgb} bind def
/col2 {0.000 1.000 0.000 srgb} bind def
/col3 {0.000 1.000 1.000 srgb} bind def
/col4 {1.000 0.000 0.000 srgb} bind def
/col5 {1.000 0.000 1.000 srgb} bind def
/col6 {1.000 1.000 0.000 srgb} bind def
/col7 {1.000 1.000 1.000 srgb} bind def
/col8 {0.000 0.000 0.560 srgb} bind def
/col9 {0.000 0.000 0.690 srgb} bind def
/col10 {0.000 0.000 0.820 srgb} bind def
/col11 {0.530 0.810 1.000 srgb} bind def
/col12 {0.000 0.560 0.000 srgb} bind def
/col13 {0.000 0.690 0.000 srgb} bind def
/col14 {0.000 0.820 0.000 srgb} bind def
/col15 {0.000 0.560 0.560 srgb} bind def
/col16 {0.000 0.690 0.690 srgb} bind def
/col17 {0.000 0.820 0.820 srgb} bind def
/col18 {0.560 0.000 0.000 srgb} bind def
/col19 {0.690 0.000 0.000 srgb} bind def
/col20 {0.820 0.000 0.000 srgb} bind def
/col21 {0.560 0.000 0.560 srgb} bind def
/col22 {0.690 0.000 0.690 srgb} bind def
/col23 {0.820 0.000 0.820 srgb} bind def
/col24 {0.500 0.190 0.000 srgb} bind def
/col25 {0.630 0.250 0.000 srgb} bind def
/col26 {0.750 0.380 0.000 srgb} bind def
/col27 {1.000 0.500 0.500 srgb} bind def
/col28 {1.000 0.630 0.630 srgb} bind def
/col29 {1.000 0.750 0.750 srgb} bind def
/col30 {1.000 0.880 0.880 srgb} bind def
/col31 {1.000 0.840 0.000 srgb} bind def

end
save
newpath 0 408 moveto 0 0 lineto 464 0 lineto 464 408 lineto closepath clip newpath
-160.0 474.0 translate
1 -1 scale

/cp {closepath} bind def
/ef {eofill} bind def
/gr {grestore} bind def
/gs {gsave} bind def
/sa {save} bind def
/rs {restore} bind def
/l {lineto} bind def
/m {moveto} bind def
/rm {rmoveto} bind def
/n {newpath} bind def
/s {stroke} bind def
/sh {show} bind def
/slc {setlinecap} bind def
/slj {setlinejoin} bind def
/slw {setlinewidth} bind def
/srgb {setrgbcolor} bind def
/rot {rotate} bind def
/sc {scale} bind def
/sd {setdash} bind def
/ff {findfont} bind def
/sf {setfont} bind def
/scf {scalefont} bind def
/sw {stringwidth} bind def
/tr {translate} bind def
/tnt {dup dup currentrgbcolor
  4 -2 roll dup 1 exch sub 3 -1 roll mul add
  4 -2 roll dup 1 exch sub 3 -1 roll mul add
  4 -2 roll dup 1 exch sub 3 -1 roll mul add srgb}
  bind def
/shd {dup dup currentrgbcolor 4 -2 roll mul 4 -2 roll mul
  4 -2 roll mul srgb} bind def
/$F2psBegin {$F2psDict begin /$F2psEnteredState save def} def
/$F2psEnd {$F2psEnteredState restore end} def

$F2psBegin
%%Page: 1 1
10 setmiterlimit
 0.06000 0.06000 sc
%
% Fig objects follow
%
% Polyline
15.000 slw
n 6780 2925 m 6780 2490 l 5415 2490 l 5415 2925 l
 cp gs col-1 s gr 
/Times-Roman ff 180.00 scf sf
5535 2760 m
gs 1 -1 sc (Quel_Triangle) col-1 sh gr
% Polyline
n 5415 5595 m 5415 4710 l 3180 4710 l 3180 5595 l
 cp gs col-1 s gr 
% Polyline
n 6750 5385 m 6750 4950 l 5415 4950 l 5415 5385 l
 cp gs col-1 s gr 
% Polyline
n 10365 3150 m 10365 2700 l 8775 2700 l 8775 3150 l
 cp gs col-1 s gr 
% Polyline
n 5400 4275 m 5400 2250 l 3135 2250 l 3135 4275 l
 cp gs col-1 s gr 
% Polyline
n 5415 5595 m 5415 4710 l 3180 4710 l 3180 5595 l
 cp gs col-1 s gr 
% Polyline
n 6750 5385 m 6750 4950 l 5415 4950 l 5415 5385 l
 cp gs col-1 s gr 
% Polyline
n 10365 3150 m 10365 2700 l 8775 2700 l 8775 3150 l
 cp gs col-1 s gr 
% Polyline
n 5400 4275 m 5400 2250 l 3135 2250 l 3135 4275 l
 cp gs col-1 s gr 
% Polyline
7.500 slw
n 4500 3825 m 4500 3375 l 5400 3375 l 5400 3825 l
 cp gs col-1 s gr 
% Polyline
n 4500 2925 m 4500 2475 l 5400 2475 l 5400 2925 l
 cp gs col-1 s gr 
% Polyline
n 7875 3150 m 7875 2700 l 8775 2700 l 8775 3150 l
 cp gs col-1 s gr 
% Polyline
n 4500 5400 m 4500 4950 l 5400 4950 l 5400 5400 l
 cp gs col-1 s gr 
% Polyline
15.000 slw
n 6750 3810 m 6750 3375 l 5385 3375 l 5385 3810 l
 cp gs col-1 s gr 
% Polyline
n 8790 7875 m 8790 1125 l 2700 1125 l 2700 7875 l
 cp gs col-1 s gr 
% Polyline
n 5385 7110 m 5385 6225 l 3150 6225 l 3150 7110 l
 cp gs col-1 s gr 
/Times-Roman ff 180.00 scf sf
9000 2925 m
gs 1 -1 sc (Classe_Triangle) col-1 sh gr
/Times-Roman ff 180.00 scf sf
2925 1590 m
gs 1 -1 sc (Type_Triangle) col-1 sh gr
/Times-Roman ff 180.00 scf sf
5445 5220 m
gs 1 -1 sc (Ordonne_3_NAT) col-1 sh gr
/Times-Roman ff 180.00 scf sf
3360 4965 m
gs 1 -1 sc (Outils) col0 sh gr
/Times-Roman ff 180.00 scf sf
3405 2700 m
gs 1 -1 sc (Triangle) col-1 sh gr
/Times-Roman ff 180.00 scf sf
9000 2925 m
gs 1 -1 sc (Classe_Triangle) col-1 sh gr
/Times-Roman ff 180.00 scf sf
2925 1590 m
gs 1 -1 sc (Type_Triangle) col-1 sh gr
/Times-Roman ff 180.00 scf sf
5445 5220 m
gs 1 -1 sc (Ordonne_3_NAT) col-1 sh gr
/Times-Roman ff 180.00 scf sf
3360 4965 m
gs 1 -1 sc (Outils) col0 sh gr
/Times-Roman ff 180.00 scf sf
3405 2700 m
gs 1 -1 sc (Triangle) col-1 sh gr
/Times-Roman ff 180.00 scf sf
5535 3660 m
gs 1 -1 sc (Est_un_Triangle) col-1 sh gr
/Times-Roman ff 180.00 scf sf
3300 6525 m
gs 1 -1 sc (Basic_Type_Triangle) col-1 sh gr
$F2psEnd
rs
