<?xml version="1.0" encoding="UTF-8" standalone="no"?>
<!-- Created with Inkscape (http://www.inkscape.org/) -->
<svg
   xmlns:dc="http://purl.org/dc/elements/1.1/"
   xmlns:cc="http://web.resource.org/cc/"
   xmlns:rdf="http://www.w3.org/1999/02/22-rdf-syntax-ns#"
   xmlns:svg="http://www.w3.org/2000/svg"
   xmlns="http://www.w3.org/2000/svg"
   xmlns:xlink="http://www.w3.org/1999/xlink"
   xmlns:sodipodi="http://sodipodi.sourceforge.net/DTD/sodipodi-0.dtd"
   xmlns:inkscape="http://www.inkscape.org/namespaces/inkscape"
   width="354.33069"
   height="180"
   id="svg3046"
   sodipodi:version="0.32"
   inkscape:version="0.44.1"
   version="1.0"
   sodipodi:docbase="/home/scolin/work/CVS/SoSym06/figures"
   sodipodi:docname="codegen2.svg">
  <defs
     id="defs3048">
    <marker
       inkscape:stockid="Arrow1Mend"
       orient="auto"
       refY="0.0"
       refX="0.0"
       id="Arrow1Mend"
       style="overflow:visible;">
      <path
         id="path3011"
         d="M 0.0,0.0 L 5.0,-5.0 L -12.5,0.0 L 5.0,5.0 L 0.0,0.0 z "
         style="fill-rule:evenodd;stroke:#000000;stroke-width:1.0pt;marker-start:none;"
         transform="scale(0.4) rotate(180) translate(10,0)" />
    </marker>
    <linearGradient
       id="linearGradient2770">
      <stop
         style="stop-color:yellow;stop-opacity:1"
         offset="0"
         id="stop2772" />
      <stop
         style="stop-color:#9f6221;stop-opacity:1"
         offset="1"
         id="stop2774" />
    </linearGradient>
    <linearGradient
       x1="57.5"
       y1="16.665344"
       x2="90.5"
       y2="42.665344"
       id="linearGradient3101"
       xlink:href="#linearGradient2770"
       gradientUnits="userSpaceOnUse" />
    <linearGradient
       id="linearGradient2778">
      <stop
         style="stop-color:white;stop-opacity:1"
         offset="0"
         id="stop2780" />
      <stop
         style="stop-color:#ff8080;stop-opacity:1"
         offset="1"
         id="stop2782" />
    </linearGradient>
    <radialGradient
       cx="187.5"
       cy="39.665344"
       r="48"
       fx="187.5"
       fy="39.665344"
       id="radialGradient3103"
       xlink:href="#linearGradient2778"
       gradientUnits="userSpaceOnUse"
       gradientTransform="matrix(1,0,0,0.270833,0,28.92265)" />
    <linearGradient
       inkscape:collect="always"
       xlink:href="#linearGradient2770"
       id="linearGradient3071"
       gradientUnits="userSpaceOnUse"
       x1="57.5"
       y1="16.665344"
       x2="90.5"
       y2="42.665344"
       gradientTransform="translate(-0.500001,-9.499998)" />
    <radialGradient
       inkscape:collect="always"
       xlink:href="#linearGradient2778"
       id="radialGradient3074"
       gradientUnits="userSpaceOnUse"
       gradientTransform="matrix(1,0,0,0.270833,-10.5,9.42265)"
       cx="187.5"
       cy="39.665344"
       fx="187.5"
       fy="39.665344"
       r="48" />
    <radialGradient
       inkscape:collect="always"
       xlink:href="#linearGradient2778"
       id="radialGradient3198"
       gradientUnits="userSpaceOnUse"
       gradientTransform="matrix(1,0,0,0.270833,-10.5,9.42265)"
       cx="187.5"
       cy="39.665344"
       fx="187.5"
       fy="39.665344"
       r="48" />
    <radialGradient
       inkscape:collect="always"
       xlink:href="#linearGradient2778"
       id="radialGradient3220"
       gradientUnits="userSpaceOnUse"
       gradientTransform="matrix(1,0,0,0.270833,-10.5,9.42265)"
       cx="187.5"
       cy="39.665344"
       fx="187.5"
       fy="39.665344"
       r="48" />
    <linearGradient
       inkscape:collect="always"
       xlink:href="#linearGradient2770"
       id="linearGradient3240"
       gradientUnits="userSpaceOnUse"
       gradientTransform="translate(-0.500001,-9.499998)"
       x1="57.5"
       y1="16.665344"
       x2="90.5"
       y2="42.665344" />
    <radialGradient
       inkscape:collect="always"
       xlink:href="#linearGradient2778"
       id="radialGradient3242"
       gradientUnits="userSpaceOnUse"
       gradientTransform="matrix(1,0,0,0.270833,-10.5,9.42265)"
       cx="187.5"
       cy="39.665344"
       fx="187.5"
       fy="39.665344"
       r="48" />
  </defs>
  <sodipodi:namedview
     id="base"
     pagecolor="#ffffff"
     bordercolor="#666666"
     borderopacity="1.0"
     inkscape:pageopacity="0.0"
     inkscape:pageshadow="2"
     inkscape:zoom="2.8"
     inkscape:cx="200.09485"
     inkscape:cy="66.639276"
     inkscape:document-units="px"
     inkscape:current-layer="layer1"
     showgrid="true"
     inkscape:object-bbox="true"
     inkscape:object-points="true"
     objecttolerance="3.5"
     gridtolerance="2.7"
     guidetolerance="3.5"
     inkscape:guide-points="true"
     inkscape:grid-points="true"
     inkscape:object-nodes="true"
     width="354.33069px"
     height="180px"
     units="px"
     inkscape:window-width="1255"
     inkscape:window-height="695"
     inkscape:window-x="29"
     inkscape:window-y="24" />
  <metadata
     id="metadata3051">
    <rdf:RDF>
      <cc:Work
         rdf:about="">
        <dc:format>image/svg+xml</dc:format>
        <dc:type
           rdf:resource="http://purl.org/dc/dcmitype/StillImage" />
      </cc:Work>
    </rdf:RDF>
  </metadata>
  <g
     inkscape:label="Calque 1"
     inkscape:groupmode="layer"
     id="layer1">
    <g
       id="g3134"
       transform="translate(-6.944449,0.238906)">
      <rect
         id="rect1872"
         style="color:black;fill:url(#linearGradient3240);fill-opacity:1;fill-rule:nonzero;stroke:black;stroke-width:1;stroke-linecap:butt;stroke-linejoin:round;marker:none;marker-start:none;marker-mid:none;marker-end:none;stroke-miterlimit:4;stroke-dasharray:none;stroke-dashoffset:0;stroke-opacity:1;visibility:visible;display:inline;overflow:visible"
         y="7.6653442"
         x="24.5"
         ry="0"
         rx="0"
         height="25"
         width="65" />
      <text
         sodipodi:linespacing="100%"
         id="text3090"
         y="22.854797"
         x="57.325195"
         style="font-size:12px;font-style:normal;font-variant:normal;font-weight:normal;font-stretch:normal;text-align:center;line-height:100%;writing-mode:lr-tb;text-anchor:middle;fill:black;fill-opacity:1;stroke:none;stroke-width:1px;stroke-linecap:butt;stroke-linejoin:miter;stroke-opacity:1;font-family:Times New Roman"
         xml:space="preserve"><tspan
           y="22.854797"
           x="57.325195"
           id="tspan3092"
           sodipodi:role="line">B spec.</tspan></text>
    </g>
    <g
       id="g3165"
       transform="translate(-6.944449,6.739965)">
      <use
         height="177.16534"
         width="354.33069"
         transform="translate(0,39)"
         id="use3082"
         xlink:href="#rect1872"
         y="0"
         x="0" />
      <text
         sodipodi:linespacing="100%"
         id="text3094"
         y="61.854797"
         x="57.325195"
         style="font-size:12px;font-style:normal;font-variant:normal;font-weight:normal;font-stretch:normal;text-align:center;line-height:100%;writing-mode:lr-tb;text-anchor:middle;fill:black;fill-opacity:1;stroke:none;stroke-width:1px;stroke-linecap:butt;stroke-linejoin:miter;stroke-opacity:1;font-family:Times New Roman"
         xml:space="preserve"><tspan
           y="61.854797"
           x="57.325195"
           id="tspan3096"
           sodipodi:role="line">B-HLL spec.</tspan></text>
    </g>
    <g
       id="g3170"
       transform="translate(-6.944449,17.1903)">
      <use
         height="177.16534"
         width="354.33069"
         transform="translate(0,79)"
         id="use3084"
         xlink:href="#rect1872"
         y="0"
         x="0" />
      <text
         sodipodi:linespacing="100%"
         id="text3098"
         y="96.048157"
         x="57.325195"
         style="font-size:12px;font-style:normal;font-variant:normal;font-weight:normal;font-stretch:normal;text-align:center;line-height:100%;writing-mode:lr-tb;text-anchor:middle;fill:black;fill-opacity:1;stroke:none;stroke-width:1px;stroke-linecap:butt;stroke-linejoin:miter;stroke-opacity:1;font-family:Times New Roman"
         xml:space="preserve"><tspan
           y="96.048157"
           x="57.325195"
           id="tspan3100"
           sodipodi:role="line">Flattened</tspan><tspan
           id="tspan3102"
           y="108.04816"
           x="57.325195"
           sodipodi:role="line">B-HLL spec.</tspan></text>
    </g>
    <g
       id="g3176"
       transform="translate(5.556444e-2,24.18843)">
      <use
         height="177.16534"
         width="354.33069"
         transform="matrix(1.212121,0,0,1,-19.09091,115)"
         id="use3086"
         xlink:href="#rect1872"
         y="0"
         x="0" />
      <text
         sodipodi:linespacing="100%"
         id="text3104"
         y="138.03644"
         x="49.944324"
         style="font-size:12px;font-style:normal;font-variant:normal;font-weight:normal;font-stretch:normal;text-align:center;line-height:100%;writing-mode:lr-tb;text-anchor:middle;fill:black;fill-opacity:1;stroke:none;stroke-width:1px;stroke-linecap:butt;stroke-linejoin:miter;stroke-opacity:1;font-family:Times New Roman"
         xml:space="preserve"><tspan
           y="138.03644"
           x="49.944324"
           id="tspan3106"
           sodipodi:role="line">XSL Stylesheet</tspan></text>
    </g>
    <g
       id="g3192"
       transform="translate(-9.888863,22.73895)">
      <use
         height="177.16534"
         width="354.33069"
         transform="matrix(1.606061,0,0,1.192308,210.4545,112.622)"
         id="use3088"
         xlink:href="#rect1872"
         y="0"
         x="0" />
      <text
         sodipodi:linespacing="100%"
         id="text3108"
         y="134.74928"
         x="301.76852"
         style="font-size:12px;font-style:normal;font-variant:normal;font-weight:normal;font-stretch:normal;text-align:center;line-height:100%;writing-mode:lr-tb;text-anchor:middle;fill:black;fill-opacity:1;stroke:none;stroke-width:1px;stroke-linecap:butt;stroke-linejoin:miter;stroke-opacity:1;font-family:Times New Roman"
         xml:space="preserve"><tspan
           y="134.74928"
           x="301.76852"
           id="tspan3110"
           sodipodi:role="line">Component-oriented</tspan><tspan
           id="tspan3112"
           y="146.74928"
           x="301.76852"
           sodipodi:role="line">code</tspan></text>
    </g>
    <g
       id="g3187"
       transform="translate(-10.72352,25.23891)">
      <use
         height="177.16534"
         width="354.33069"
         transform="translate(1,114)"
         id="use3080"
         xlink:href="#path1874"
         y="0"
         x="0" />
      <text
         sodipodi:linespacing="100%"
         id="text3114"
         y="136.94562"
         x="177.92383"
         style="font-size:12px;font-style:normal;font-variant:normal;font-weight:normal;font-stretch:normal;text-align:center;line-height:100%;writing-mode:lr-tb;text-anchor:middle;fill:black;fill-opacity:1;stroke:none;stroke-width:1px;stroke-linecap:butt;stroke-linejoin:miter;stroke-opacity:1;font-family:Times New Roman"
         xml:space="preserve"><tspan
           y="136.94562"
           x="177.92383"
           id="tspan3116"
           sodipodi:role="line">XSLT processor</tspan></text>
    </g>
    <g
       id="g3181"
       transform="translate(-14.70659,12.17221)">
      <use
         height="177.16534"
         width="354.33069"
         transform="matrix(1.103779,0,0,1.386459,-13.38581,76.22501)"
         id="use3078"
         xlink:href="#path1874"
         y="0"
         x="0" />
      <text
         sodipodi:linespacing="100%"
         id="text3118"
         y="102.26742"
         x="181.71648"
         style="font-size:12px;font-style:normal;font-variant:normal;font-weight:normal;font-stretch:normal;text-align:center;line-height:100%;writing-mode:lr-tb;text-anchor:middle;fill:black;fill-opacity:1;stroke:none;stroke-width:1px;stroke-linecap:butt;stroke-linejoin:miter;stroke-opacity:1;font-family:Times New Roman"
         xml:space="preserve"><tspan
           y="102.26742"
           x="181.71648"
           id="tspan3120"
           sodipodi:role="line">Simple flattening</tspan><tspan
           id="tspan3122"
           y="114.26742"
           x="181.71648"
           sodipodi:role="line">tool</tspan></text>
    </g>
    <g
       id="g3159"
       transform="translate(-19.72346,-0.760036)">
      <use
         height="177.16534"
         width="354.33069"
         transform="matrix(1.208333,0,0,1.576923,-26.875,34.86615)"
         id="use3076"
         xlink:href="#path1874"
         y="0"
         x="0" />
      <text
         sodipodi:linespacing="100%"
         id="text3124"
         y="63.536438"
         x="186.85931"
         style="font-size:12px;font-style:normal;font-variant:normal;font-weight:normal;font-stretch:normal;text-align:center;line-height:100%;writing-mode:lr-tb;text-anchor:middle;fill:black;fill-opacity:1;stroke:none;stroke-width:1px;stroke-linecap:butt;stroke-linejoin:miter;stroke-opacity:1;font-family:Times New Roman"
         xml:space="preserve"><tspan
           y="63.536438"
           x="186.85931"
           id="tspan3126"
           sodipodi:role="line">B_to_BHLL tool</tspan><tspan
           id="tspan3128"
           y="75.536438"
           x="186.85931"
           sodipodi:role="line">+ BHLL typechecker</tspan></text>
    </g>
    <g
       id="g3154"
       transform="translate(-9.72352,0.238906)">
      <path
         id="path1874"
         style="color:black;fill:url(#radialGradient3242);fill-opacity:1;fill-rule:nonzero;stroke:black;stroke-width:1;stroke-linecap:butt;stroke-linejoin:round;marker:none;marker-start:none;marker-mid:none;marker-end:none;stroke-miterlimit:4;stroke-dasharray:none;stroke-dashoffset:0;stroke-opacity:1;visibility:visible;display:inline;overflow:visible"
         d="M 224.5,20.165344 C 224.5,27.068903 203.23353,32.665344 177,32.665344 C 150.76647,32.665344 129.5,27.068903 129.5,20.165344 C 129.5,13.261785 150.76647,7.6653442 177,7.6653442 C 203.23353,7.6653442 224.5,13.261785 224.5,20.165344 L 224.5,20.165344 z " />
      <text
         sodipodi:linespacing="100%"
         id="text3130"
         y="24.055969"
         x="176.86816"
         style="font-size:12px;font-style:normal;font-variant:normal;font-weight:normal;font-stretch:normal;text-align:center;line-height:100%;writing-mode:lr-tb;text-anchor:middle;fill:black;fill-opacity:1;stroke:none;stroke-width:1px;stroke-linecap:butt;stroke-linejoin:miter;stroke-opacity:1;font-family:Times New Roman"
         xml:space="preserve"><tspan
           y="24.055969"
           x="176.86816"
           id="tspan3132"
           sodipodi:role="line">Parser</tspan></text>
    </g>
    <path
       style="fill:none;fill-opacity:0.75;fill-rule:evenodd;stroke:black;stroke-width:1px;stroke-linecap:butt;stroke-linejoin:miter;stroke-opacity:1;marker-end:url(#Arrow1Mend)"
       d="M 83.055551,20.40425 L 119.27648,20.40425"
       id="path3244"
       inkscape:connector-type="polyline"
       inkscape:connection-start="#g3134"
       inkscape:connection-end="#g3154" />
    <path
       style="fill:none;fill-opacity:0.75;fill-rule:evenodd;stroke:black;stroke-width:1px;stroke-linecap:butt;stroke-linejoin:miter;stroke-opacity:1;marker-end:url(#Arrow1Mend)"
       d="M 167.27648,33.40425 L 167.27648,45.503582"
       id="path3246"
       inkscape:connector-type="polyline"
       inkscape:connection-start="#g3154"
       inkscape:connection-end="#g3159" />
    <path
       style="fill:none;fill-opacity:0.75;fill-rule:evenodd;stroke:black;stroke-width:1px;stroke-linecap:butt;stroke-linejoin:miter;stroke-opacity:1;marker-end:url(#Arrow1Mend)"
       d="M 109.19047,65.905309 L 83.055551,65.905309"
       id="path3248"
       inkscape:connector-type="polyline"
       inkscape:connection-start="#g3159"
       inkscape:connection-end="#g3165" />
    <path
       style="fill:none;fill-opacity:0.75;fill-rule:evenodd;stroke:black;stroke-width:1px;stroke-linecap:butt;stroke-linejoin:miter;stroke-opacity:1;marker-end:url(#Arrow1Mend)"
       d="M 80.260943,78.905309 L 125.5715,98.40637"
       id="path3250"
       inkscape:connector-type="polyline"
       inkscape:connection-start="#g3165"
       inkscape:connection-end="#g3181" />
    <path
       style="fill:none;fill-opacity:0.75;fill-rule:evenodd;stroke:black;stroke-width:1px;stroke-linecap:butt;stroke-linejoin:miter;stroke-opacity:1;marker-end:url(#Arrow1Mend)"
       d="M 114.22845,116.35564 L 83.055551,116.35564"
       id="path3252"
       inkscape:connector-type="polyline"
       inkscape:connection-start="#g3181"
       inkscape:connection-end="#g3170" />
    <path
       style="fill:none;fill-opacity:0.75;fill-rule:evenodd;stroke:black;stroke-width:1px;stroke-linecap:butt;stroke-linejoin:miter;stroke-opacity:1;marker-end:url(#Arrow1Mend)"
       d="M 83.055551,128.47468 L 131.87761,146.40425"
       id="path3254"
       inkscape:connector-type="polyline"
       inkscape:connection-start="#g3170"
       inkscape:connection-end="#g3187" />
    <path
       style="fill:none;fill-opacity:0.75;fill-rule:evenodd;stroke:black;stroke-width:1px;stroke-linecap:butt;stroke-linejoin:miter;stroke-opacity:1;marker-end:url(#Arrow1Mend)"
       d="M 89.999966,159.37098 L 119.27648,159.38358"
       id="path3256"
       inkscape:connector-type="polyline"
       inkscape:connection-start="#g3176"
       inkscape:connection-end="#g3187" />
    <path
       style="fill:none;fill-opacity:0.75;fill-rule:evenodd;stroke:black;stroke-width:1px;stroke-linecap:butt;stroke-linejoin:miter;stroke-opacity:1;marker-end:url(#Arrow1Mend)"
       d="M 215.27648,159.40425 L 239.22223,159.40425"
       id="path3258"
       inkscape:connector-type="polyline"
       inkscape:connection-start="#g3187"
       inkscape:connection-end="#g3192" />
  </g>
</svg>
